{
  "Automatic Calendar Update": [
    "Automatic Calendar Update Dropbox Calendar will automatically be updated when a booking or event is added."
  ],
  "Event starts on Google Calendar, send me an SMS": [
    "Event starts on Google Calendar, send me an SMS Receive a text ~ 15 minutes before an event on your Google calendar starts."
  ],
  "Calendar Notifier": [
    "Calendar Notifier Get known every time your agenda has a new item"
  ],
  "Create cards for holidays": [
    "Create cards for holidays Useful for organisations to post holidays from a Google calendar to a trello board"
  ],
  "Scheduled tweet from Google Calendar": [
    "Scheduled tweet from Google Calendar Based on an Applet by Ryan E. Yip (http://twitter.com/ryaneyip).",
    "Use the name of the calendar event as the text to tweet, and put the URL in the event description"
  ],
  "Call me when a new event is added to my calendar": [
    "Call me when a new event is added to my calendar"
  ],
  "Mute android device on Google Calendar Event": [
    "Mute android device on Google Calendar Event This mutes your Android device when you have an Google Event.",
    "If the device is already is muted, It will remain muted.",
    "Android device will be set to Vibrate."
  ],
  "If there is a B-Day on my calendar today, then send me a reminder": [
    "If there is a B-Day on my calendar today, then send me a reminder"
  ],
  "Get an SMS alert before any event starts on your Google Calendar.": [
    "Get an SMS alert before any event starts on your Google Calendar.",
    "Great tool!",
    "This things gonna keep me on track and on time!!",
    "!"
  ],
  "Calendar to to-do list": [
    "Calendar to to-do list Agenda on calendar comes to the reminder list."
  ],
  "Stretch": [
    "Stretch"
  ],
  "Copy events to new calendar": [
    "Copy events to new calendar"
  ],
  "Google Calendar events are created in Wunderlist too": [
    "Google Calendar events are created in Wunderlist too Useful when creating a to-do as a Google Calendar event for time-planning, and having it on Wunderlist to-do list too"
  ],
  "Tweeting a Google Calendar event (Beta!)": [
    "Tweeting a Google Calendar event (Beta!)"
  ],
  "Hueminder: Travel Time 25 Minutes": [
    "Hueminder: Travel Time 25 Minutes Notes: place keyword text \"travel time 25 minutes\" in gcal description."
  ],
  "Schedule Daily/Weekly Group Facebook Threads with Images Using Google Calendar + Buffer": [
    "Schedule Daily/Weekly Group Facebook Threads with Images Using Google Calendar + Buffer Automatically add daily or weekly threads with IMAGES  to your Facebook Group via BUFFER.",
    "Simply create a Google Calendar Event Titled \"BUFFER THIS TO FB GROUP\" Put image url in the \"Where\" select then write your post in the \"Description\" area.",
    "Set the REPEAT Function on Google Calendar so it automatically shoves posts to BUFFER on the right day of the week.",
    "(Yay for setting it and forgetting it!)",
    "(To get an image url - upload images to your site as media files or add them to google drive)",
    "*Note: When this event is triggered it will slide your post into the next available BUFFER slot for that account*",
    "***Remember IFTTT only works with ONE of the accounts You Control with Buffer.",
    "Made sure it's set to the Facebook Group you want and not your Twitter or FB Business Page***"
  ],
  "Google Cal event triggers off.": [
    "Google Cal event triggers off.",
    "If you set a keyword or phrase from a Google Calendar event, the WeMo Switch will turn off."
  ],
  "If any new event is added by anyone on a shared Google Calendar, then send me a notification.": [
    "If any new event is added by anyone on a shared Google Calendar, then send me a notification."
  ],
  "Post at 4:30a": [
    "Post at 4:30a Will post onto Reddit at 4:30a"
  ],
  "task": [
    "task task"
  ],
  "Schedule your Twitter posts with Google Calendar.": [
    "Schedule your Twitter posts with Google Calendar."
  ],
  "Search for Work shift on google calendar, then set phone to vibrate when it starts.": [
    "Search for Work shift on google calendar, then set phone to vibrate when it starts.",
    "I can't use location based muting/vibrate since I work from home, so using the search terms for repeating events in google calendar helps out alot, I always forget, however I at least need vibrate on."
  ],
  "Scheduled Linked in update": [
    "Scheduled Linked in update"
  ],
  "When an event on my Google Calendar is about to start, post it on Twitter!": [
    "When an event on my Google Calendar is about to start, post it on Twitter!"
  ],
  "Wish friends a Happy Birthday!": [
    "Wish friends a Happy Birthday!",
    "Send a status update to wish your Facebook friends a happy birthday!",
    "RealAgentEastBay.com"
  ],
  "Birthday reminders from Google Cal to SMS": [
    "Birthday reminders from Google Cal to SMS"
  ],
  "Automatic Evernote Journal": [
    "Automatic Evernote Journal"
  ],
  "Activate Holiday Mode from Google Calendar when you're away": [
    "Activate Holiday Mode from Google Calendar when you're away In your calendar, mark your holiday with a specific keyword or phrase to automatically enable Holiday mode on your Daikin AC unit at the start of your holiday."
  ],
  "Use your Google Calendar to schedule FocusTime sessions.": [
    "Use your Google Calendar to schedule FocusTime sessions.",
    "FocusTime will temporarily block access to distracting websites so you can focus on more productive work.",
    "This Applet makes it easy to 'timebox' your calendar and schedule periods devoted to focused work."
  ],
  "Add meeting minutes to Evernote": [
    "Add meeting minutes to Evernote"
  ],
  "auto birthday wish": [
    "auto birthday wish should check for updates from facebook on birthdays and sends birthday wish"
  ],
  "Google calendar alarm": [
    "Google calendar alarm by placing an event in your google calendar you can have you phone play a song as an alarm."
  ],
  "SMS Reminder for Tagged GCal Event": [
    "SMS Reminder for Tagged GCal Event SMS reminder sent 15 min prior to events tagged as \"IMP\""
  ],
  "Turn Google Calendar events into Todoist tasks": [
    "Turn Google Calendar events into Todoist tasks Turns any events on a particular calendar into Todoist tasks.",
    "Use @ in the title of your task to label items in Todoist by context."
  ],
  "Schedule post for a Telegram channel using your own bot!": [
    "Schedule post for a Telegram channel using your own bot!",
    "This recipes requires a telegram bot that is an administrator on your channel",
    "Check out the description at http://unnikked.ml/1Q1nfUZ"
  ],
  "Mute ringtone, when an event starts in your Google Calendar": [
    "Mute ringtone, when an event starts in your Google Calendar Use this recipe, to not to be disturbed in meetings."
  ],
  "Netatmo in Autumn": [
    "Netatmo in Autumn Switch to Netatmo Winter Schedule in autumn, utilizing Google Calendar \"Solstice and Equinox\"."
  ],
  "Test": [
    "Test Test"
  ],
  "Slack Notifications for Google Calendar": [
    "Slack Notifications for Google Calendar Get rid of email notifications for events you've been invited to and put it on Slackbot's service instead."
  ],
  "sms me my friends birthday": [
    "sms me my friends birthday"
  ],
  "Use Google Calendar to Publish Facebook Page Status and Set to Repeat": [
    "Use Google Calendar to Publish Facebook Page Status and Set to Repeat Directions: You need to use one Google Calendar for each Facebook page you own.",
    "It also has to be from your main calendar, not additional calendar within your main calendar.",
    "(Step 1) - Create a new event in Google Calendar with the title #fbstatus",
    "(Step 2) - Type your status message in the event's \"Description\" field and hit save.",
    "(Step 3) - Schedule your \"event\" to repeat as often as desired.",
    "The trigger will fire within 15 minutes of the starting time of an \"event\" on your Google Calendar that contains the #fbstatus.",
    "It will then create a new plain text status message on your Facebook Page.",
    "If you include links in the message area they will be clickable on your page.",
    "That's it!"
  ],
  "Projects": [
    "Projects Complete this project ASAP"
  ],
  "New entries in Calendar will create a new task in TODOIST.": [
    "New entries in Calendar will create a new task in TODOIST.",
    "Creating a new entry in Google Calendar will cause a new task to be created in your TODOIST Inbox"
  ],
  "Format test": [
    "Format test testing to make it look better"
  ],
  "Done to Log": [
    "Done to Log"
  ],
  "Scheduling Pictures For Tumblr Photo Blog": [
    "Scheduling Pictures For Tumblr Photo Blog"
  ],
  "Google Calendar Event Day One Entry": [
    "Google Calendar Event Day One Entry Will create an entry in the chosen Day One journal 15 minutes before every event starts in Google Calendar."
  ],
  "new event": [
    "new event If any new event added on ............, then create a page"
  ],
  "Add Google Calender's new Event to iOS Reminder": [
    "Add Google Calender's new Event to iOS Reminder"
  ],
  "Daily test": [
    "Daily test test notes"
  ],
  "if your calendar has a notification send you a email": [
    "if your calendar has a notification send you a email Just fill in the blanks and magic will happen"
  ],
  "If any new event added on Daily Calendar, then send me an email": [
    "If any new event added on Daily Calendar, then send me an email I have found that Google Calendar doesn't always send notifications of added events.",
    "This trigger fixes that problem by sending you an email with the details.",
    "Some may find this useful others might not."
  ],
  "Call to wake me up when my calendar appointment says \"(WAKE UP)\"": [
    "Call to wake me up when my calendar appointment says \"(WAKE UP)\" This Applet will give you a wakeup call whenever you have an appointment in your calendar that says \"(WAKE UP)\" in the title or description."
  ],
  "Track you car cost with your google calendar and add it to Evernote": [
    "Track you car cost with your google calendar and add it to Evernote If you need to track travelling expenses by car and give a monthly report to somebody.",
    "I use them to add to an expense sheet and to have one place in Evernote each time I attend a meeting with my car."
  ],
  "If google calendar triggers send notification to phone": [
    "If google calendar triggers send notification to phone Enjoy"
  ],
  "Google Calendar to Facebook Page": [
    "Google Calendar to Facebook Page"
  ],
  "Disable A/C timer when specific Google Calendar event begins": [
    "Disable A/C timer when specific Google Calendar event begins Disable your A/C timer at the starting time of an event in Google Calendar that contains a specific keyword."
  ],
  "Add Calendar Events to Todoist": [
    "Add Calendar Events to Todoist This recipe adds new events from a Google Calendar to a Todoist list on a specific project."
  ],
  "test": [
    "test email trigger test"
  ],
  "ADP Calendar": [
    "ADP Calendar This calendar exists to convert the ADP Calendar into a spreadsheet"
  ],
  "If Chester Races is on send me notification to avoid Chester Roads": [
    "If Chester Races is on send me notification to avoid Chester Roads Roads in Chester can be a nightmare so avoid with a notification top remind you races is on"
  ],
  "When an event starts, mute phone": [
    "When an event starts, mute phone Don't leave your phone's sound on accidentally during meetings"
  ],
  "Schedule your tweets!": [
    "Schedule your tweets!",
    "You only need to create an event with the title #Twitter and the description of the event will be tweeted!"
  ],
  "Remind Hubs its garbage day": [
    "Remind Hubs its garbage day Hubs is adorable but forgetful - send him a reminder each week to put the trash out."
  ],
  "Add Google Calendar entries with \"FutureFacebook\" as the title, and this Applet will Post to FB": [
    "Add Google Calendar entries with \"FutureFacebook\" as the title, and this Applet will Post to FB"
  ],
  "if #sms is included in event title. sms is sent as reminder": [
    "if #sms is included in event title.",
    "sms is sent as reminder"
  ],
  "Send an email with event info for sending DarkSky forecasts.": [
    "Send an email with event info for sending DarkSky forecasts.",
    "I created this script to send myself Dark Sky forecasts for Calendar event locations... https://github.com/cmenscher/darkskymail This Applet sends a properly formatted email with the necessary info."
  ],
  "If activity starts get notification": [
    "If activity starts get notification If activity starts get notification"
  ],
  "Notify Raspberry Pi of holidays and special events": [
    "Notify Raspberry Pi of holidays and special events"
  ],
  "Our last meeting": [
    "Our last meeting Looking forward to our next meeting on Wednesday?",
    "Read everything about our last meeting on our blog https://sites.google.com/site/troischenestoastmasters/blog"
  ],
  "Event notice!": [
    "Event notice!"
  ],
  "Event Reminder to Slack": [
    "Event Reminder to Slack 10 min reminders to slack channel"
  ],
  "Turn my heating off when I'm on holiday": [
    "Turn my heating off when I'm on holiday Ensure you don't leave the heating on when you are away.",
    "If you have scheduled a holiday in Google Calendar this recipe turns the heating off when the holiday starts.",
    "The heating will remain off until you turn it back on or to schedule."
  ],
  "Before a event starts, post a reminder to a Slack channel, trigger is @": [
    "Before a event starts, post a reminder to a Slack channel, trigger is @"
  ],
  "When you have a meeting, auto create a note at Evernote": [
    "When you have a meeting, auto create a note at Evernote"
  ],
  "Phone on silent during meetings": [
    "Phone on silent during meetings Phone on silent during meetings"
  ],
  "Make an #Evernote #Journal based on your #Calendar": [
    "Make an #Evernote #Journal based on your #Calendar"
  ],
  "Automated birthday wishes.": [
    "Automated birthday wishes."
  ],
  "Schedule Tweet": [
    "Schedule Tweet Just create a event with title #twitter and write the tweet in description"
  ],
  "Cal to Twitter": [
    "Cal to Twitter Using #TW in Cal will post to Twitter"
  ],
  "Creating links": [
    "Creating links If any event comes up that you want others to be notified of, just add it to calendar and Facebook will create a link."
  ],
  "Calendar to Evernote": [
    "Calendar to Evernote New appointments to Evernote"
  ],
  "Off to work!": [
    "Off to work!",
    "If you frequently work in interesting events, this would be useful to get the message across."
  ],
  "Mute my device during meetings.": [
    "Mute my device during meetings."
  ],
  "My Calendar To Tumblr": [
    "My Calendar To Tumblr Make sure to add the maps calendar from epicksales"
  ],
  "remind me of events tagged \"alarm\"": [
    "remind me of events tagged \"alarm\""
  ],
  "Push calendar event creation": [
    "Push calendar event creation Push calendar event creation to pushbullet."
  ],
  "Turn nest off from calendar": [
    "Turn nest off from calendar for me really"
  ],
  "Google calender reminded by SMS": [
    "Google calender reminded by SMS"
  ],
  "High Alert! A PTA meeting starts in 15 minutes": [
    "High Alert!",
    "A PTA meeting starts in 15 minutes"
  ],
  "Tweets a starting #geomatics event": [
    "Tweets a starting #geomatics event"
  ],
  "Before a calendar event starts, post reminder to a Flock group": [
    "Before a calendar event starts, post reminder to a Flock group Setup a simple reminder 15 minutes before an event begins to a Flock group."
  ],
  "Google Cal 2 SMS": [
    "Google Cal 2 SMS"
  ],
  "Special events, sent to buffer, posted to Facebook Pages": [
    "Special events, sent to buffer, posted to Facebook Pages"
  ],
  "calendar 2 slack": [
    "calendar 2 slack calendar to slack"
  ],
  "If event 15 Minutes from now, send me a push to pushbullet": [
    "If event 15 Minutes from now, send me a push to pushbullet Just something to alert you if an event is going on in 15 minutes"
  ],
  "Calendar Event to Trello list": [
    "Calendar Event to Trello list Calendar Event to Trello list of your choosing"
  ],
  "Calendar Event Post to LinkedIn": [
    "Calendar Event Post to LinkedIn"
  ],
  "Phones heads up": [
    "Phones heads up Call 15 minutes before the event"
  ],
  "Calendar Event Post to FB": [
    "Calendar Event Post to FB"
  ],
  "Clinic Calendar posting": [
    "Clinic Calendar posting Today's Clinic and links:"
  ]
}