[
  {
    "word": "",
    "sentence": [
      "Contacts, reviews and click to call from any web page.2GIS for Chrome  is business listing directory available on any web page.",
      "Get business details about majority of companies around the globe:",
      "working hours",
      "phone numbers",
      "rating and reviews",
      "exact location address and directions",
      "Call directly from the extension.",
      "Click on any highlighted number and we will push it to your smartphone."
    ]
  },
  {
    "word": "",
    "sentence": [
      "A little plugin that lets you know if you need a jacket!You're sitting there, in your office chair.",
      "It's warm inside, but you wonder of outside.",
      "With a small click, you'll know what to pick.",
      "Jacket or no?",
      "That's this extension's M.O.",
      "!"
    ]
  },
  {
    "word": "",
    "sentence": [
      "The highly attractive and internationally approved weather extension.",
      "Hola Weather is made just for you!",
      "- Auto location lookup",
      "- View current conditions and forecast for next 10 hours",
      "- Background color changes with temperature",
      "- Clean and easy to read user interface",
      "Feedback appreciated!"
    ]
  },
  {
    "word": "",
    "sentence": [
      "The expansion creates a new tab in the thematic style of 'Guardians of the Galaxy'This is a theme with the wallpaper of Guardians of the Galaxy characters: Drax, Gamora, Groot, Rocket Raccoon, Star-Lord.",
      "When you install the extension, a new thematic tab will appear.",
      "But that is not all.",
      "You will always know about the weather outside the window because it is displayed on a new tab.",
      "With the help of Guardians of the Galaxy Newtab Theme, you get quick access to popular social networks, such as Instagram, Facebook, Twitter.",
      "Also, the most visited sites will always be on hand.",
      "Guardians of the Galaxy Newtab Theme is simple and convenient in use.",
      "Install the Guardians of the Galaxy Newtab Theme and enjoy different wallpapers with your favorite characters each time you open a new tab."
    ]
  },
  {
    "word": "",
    "sentence": [
      "The expansion creates a new tab in the thematic style of 'The Avengers'This is a theme with the wallpaper of The Avengers characters: Black Panther, Black Widow, Captain America, Captain Marvel, Falcon, Hank Pym, Hawkeye, Hulk, Iron Man, Luke Cage, Quicksilver, Scarlet Witch, Spider-Woman, Thor, Vision, Wasp, Wonder Man.",
      "When you install the extension, a new thematic tab will appear.",
      "But that is not all.",
      "You will always know about the weather outside the window because it is displayed on a new tab.",
      "With the help of The Avengers Newtab Theme, you get quick access to popular social networks, such as Instagram, Facebook, Twitter.",
      "Also, the most visited sites will always be on hand.",
      "The Avengers Newtab Theme is simple and convenient in use.",
      "Install the The Avengers Newtab Theme and enjoy different wallpapers with your favorite characters each time you open a new tab."
    ]
  },
  {
    "word": "",
    "sentence": [
      "The expansion creates a new tab in the thematic style of 'DeadPool'This is a theme with the wallpaper of DeadPool character.",
      "When you install the extension, a new thematic tab will appear.",
      "But that is not all.",
      "You will always know about the weather outside the window because it is displayed on a new tab.",
      "With the help of DeadPool Newtab Theme, you get quick access to popular social networks, such as Instagram, Facebook, Twitter.",
      "Also, the most visited sites will always be on hand.",
      "DeadPool Newtab Theme is simple and convenient in use.",
      "Install the DeadPool Newtab Theme and enjoy different wallpapers with the main character DeadPool each time you open a new tab."
    ]
  }
]