[
  {
    "word": [
      "your",
      "location"
    ],
    "sentence": [
      "Experience new Chrome Tabs with Pixlr Today.",
      "Expect a fresh image each time you open a new tab on Chrome!",
      "Pixlr Today features vibrant images curated from 123RF and edited with the Pixlr Editor.",
      "Aesthetic and elegant in appearance, this extension is also convenient for image edits.",
      "+ Direct access to Pixlr Web Apps for all your image editing needs!",
      "+ Stock Image Search Bar beside the default Google Search Bar for quality image search.",
      "+ To-Do list that syncs with your Google Task.",
      "+ Weather Updates of your preferred location.",
      "To top it all off, weve thrown in daily positive quotes to brighten up your day.",
      "Get the Pixlr Today extension to transform your Chrome Tabs!"
    ]
  },
  {
    "word": [
      "you",
      "wherever"
    ],
    "sentence": [
      "Amazon's official browser extension.",
      "By installing you agree to the Conditions of Use at amazon.com/gp/BIT/TOUAmazon Assistant helps you make better decisions wherever you shop online:",
      "* Compare products while browsing.",
      "Assistant proactively shows you Amazons best offer and ratings for products you are browsing online.",
      "* Never miss out on an Amazon deal.",
      "Get notified when deals youre watching go live and see new deals every day.",
      "* Get Amazon order updates with one click.",
      "Assistant notifies you when your orders ship and are delivered.",
      "* Save all your online favorites in one place.",
      "Your Lists keep track of products from Amazon and other websites in one convenient place.",
      "By installing you are agreeing to the Conditions of Use at www.amazon.com/gp/BIT/TOU.",
      "We offer localized support in  10 locales, including US, Canada, France, Germany, Italy, UK, Spain, Japan, India, and China.",
      "Learn more at www.amazon.com/assistant."
    ]
  },
  {
    "word": [
      "your",
      "weather"
    ],
    "sentence": [
      "Replace your new tab with a minimalistic and customizable homepage featuring a clock, todo list, weather, bookmarks and much more!",
      "leoh is a personal and customizable chrome new tab dashboard featuring useful tools, stunning photography, and beautiful design.",
      "All information is synced across browsers so no matter if you are at work or at home, leoh will remember your options and preferences.",
      "--Best of 2015 Extension!--",
      "**As seen on Product Hunt, CNET**",
      "--Features:",
      "Sync across computers",
      "See your Google Calendar",
      "Todo List",
      "Custom background images / colors",
      "Zen Mode: Relaxing video backgrounds!",
      "Custom image albums",
      "Set a goal to focus your day",
      "Clean design and stunning photography",
      "Access to apps, bookmarks and history",
      "Ability to change themes",
      "Five day weather forecast with option to change location",
      "Inbuilt note taker",
      "\"Quick Links\" which lets you save and access your favorite websites quickly",
      "Top five news stories of the day",
      "View most visited links",
      "Fully customizable to your liking",
      "Disable / Enable Icons & Tools",
      "Once again, all this information is synced to your Google Chrome ID so your Todo List and other tools will update at your work PC and at home.",
      "leoh offers inspiration and allows you to stay focused throughout the day with the \"Task of the Day\" option.",
      "Every time you open a new tab you are presented with stunning photography, clean design, and elegant font.",
      "It really doesn't get much better than that.",
      "More information:",
      "http://leoh.io",
      "Some people compare this extension to momentum, infinity new tab and others.",
      "We are more focused on productivity."
    ]
  },
  {
    "word": [
      "your",
      "position"
    ],
    "sentence": [
      "Do you know how your position look for different cities?",
      "How to check positions of the website in different parts of the world",
      "Working in Delhi or in Kyiv you can check the positions of the website you are promoting in Google for visitors from Washington, London or any other city in incognito mode",
      "Geo Clever, Geo Clover, Geoclover"
    ]
  },
  {
    "word": [
      "current",
      "weather"
    ],
    "sentence": [
      "This extension shows the current weather and news headlines in the new tab page."
    ]
  },
  {
    "word": [
      "your",
      "weather"
    ],
    "sentence": [
      "The original funny weather app right in your browser.",
      "You check the weather, why not laugh as well?",
      "Start your day off on the right foot with HumorCast: the original funny weather app.",
      "Baked-in are 1000s of phrases ready to complement the awful weather.",
      "We also use a state-of-the-art weather engine including NOAA and wrapped it up in an easy-to-use interface.",
      "Highlighted features:",
      "[+] Hyperlocal and accurate weather forecasting",
      "[+] Profanity-o-meter (Off, 13+, 17+)",
      "[+] Weather alerts",
      "[+] Current/hour/7-day weather conditions",
      "[+] Hyperlocal rain graph (down to the minute predictions!)",
      "[+] Sharing features",
      "[+] US/metric units",
      "[+] and so much more..."
    ]
  },
  {
    "word": [
      "your",
      "weather"
    ],
    "sentence": [
      "Personalize your tab page with Shenandoah University featuring facts, news, and weather.",
      "Explore the latest Shenandoah University facts and news by personalizing your tab page."
    ]
  },
  {
    "word": [
      "your",
      "location"
    ],
    "sentence": [
      "Stylish Clocks and Weather forecast combo widget for FVD Speed Dial [FVD]Stylish Clocks and Weather forecast combo widget for FVD Speed Dial [FVD].",
      "Easily switch between Clock and weather.",
      "Note: you need to set your location in settings.",
      "To enable this widget and get more features you need to install FVD Speed Dial.",
      "http://x2t.com/speed-dial",
      "or directly from Google Webstore:",
      "https://chrome.google.com/webstore/detail/fvd-speed-dial-3d-wall-sy/llaficoajjainaijghjlofdfmbjpebpa?hl=en-US"
    ]
  },
  {
    "word": [
      "current",
      "weather"
    ],
    "sentence": [
      "A New Tab to get you started and keep you informedVelocity is a new approach to utilizing that new tab feature of yours.",
      "This extension is meant to get you what you want as quickly and efficiently as you would like.",
      "Allowing custom icon arrangements and dock placement, as well as moving around future widgets to come!",
      "Velocity will also inform you of the current weather not only in a standard icon and numeric fashion, but by animating the background to match!",
      "Velocity will require you to create an account and sign at first, but will keep you going afterwards, This will primarily be to create a \"cloud\" effect when moving to other machines, This is due to the fact that google would like to charge me for such features!",
      "Please note however that many features are yet to come, and all are subject to change.",
      "The weather animation methods are currently a bit CPU heavy, While I plan to make these as efficient as possible, they may require you to disable them to save a bit of power.",
      "(This is an \"upgrade\" from the Accelerate extension).",
      "!!",
      "DISCLAIMER !",
      "!",
      "Velocity is Provided AS-IS, All photos are provided by Unsplash.",
      "com (info @ https://unsplash.com/faq ).",
      "Any and all questions, comments, or recommendations should be submitted using the support page at: https://chrome.google.com/webstore/detail/velocity/dpcdlgljgdpbbnedodpchhpidkolpdmo/support"
    ]
  },
  {
    "word": [
      "your",
      "weather"
    ],
    "sentence": [
      "Search for Weather in address bar and browser action modal.",
      "Manage your websearch & weather search provider.",
      "Search for Weather directly from your address bar!",
      "This extension will update your browser omnibox search to allow meta search for Weather.",
      "Quick Tips:",
      "- Go to the address bar and type \"Weather\"",
      "- After Weather hit spacebar or Tab in your keyboard",
      "- Type in the name of City you are trying to search",
      "List of Features:",
      "- Manage Weather Search to search using AllWeatherSearch, Weatherbug, Yahoo, or Google.",
      "- Manage Search Settings to search web using Yahoo.",
      "You can easily switch between Bing, Google and Yahoo search engines by updating settings via the link in the browser action Modal",
      "- Perform Weather searches in your omnibox and browser action modal",
      "- Perform Web Searches in your omnibox and browser action modal",
      "To remove our extension from Google Chrome:",
      "- Open Google Chrome browser window",
      "- Click on the Tools (Wrench) icon located in the upper right hand corner of the browser window.",
      "- Select Tools option and select Extensions; a new window will appear",
      "- Select the Extensions tab on the left hand side of the window",
      "- Select the program you wish to uninstall",
      "- Click on the Remove button on the right hand side of the window"
    ]
  },
  {
    "word": [
      "your",
      "current"
    ],
    "sentence": [
      "Chrome extension that shows the current time and weather on the new tab screenReplace new tab screen with current time and weather sourced from OpenWeatherMap.org.",
      "Simple replaces your \"New Tab\" screen with a new one that shows you the current time and the weather, with no tracking, no unnecessary permissions, no BS.",
      "# Update 1.0.4",
      "Layout changes",
      "Fix bug causing failure in first weather load",
      "Add current temp in addition to current day min/max temps",
      "# Update 1.0.3",
      "Fix issue where new/updating users might have problems due to lack of location info",
      "# Update 1.0.2",
      "Sped up location gathering and added ability to select font colors"
    ]
  }
]